{
  "_____________________sep__base_data__": [
    "----------------------------"
  ],
  "serviceKinds": [
    {
      "id": 1,
      "name": "سرویس نوع اول",
      "created": 1644058216250,
      "updated": 1644058216250
    },
    {
      "id": 2,
      "name": "سرویس نوع دوم",
      "created": 1644058216250,
      "updated": 1644058216250
    }
  ],
  "ownershipKinds": [
    {
      "id": 1,
      "name": "دولتی",
      "created": 1644058216250,
      "updated": 1644058216250
    },
    {
      "id": 2,
      "name": "خصوصی",
      "created": 1644058216250,
      "updated": 1644058216250
    }
  ],
  "executiveOrganisations": [
    {
      "id": 1,
      "name": "بیمه سامان",
      "created": 1644058216250,
      "updated": 1644058216250
    },
    {
      "id": 2,
      "name": "وزارت آموزش و پرورش",
      "created": 1644058216250,
      "updated": 1644058216250
    }
  ],
  "officeKinds": [
    {
      "id": 1,
      "name": "شرکت نوع اول",
      "created": 1644058216250,
      "updated": 1644058216250
    },
    {
      "id": 2,
      "name": "شرکت نوع دوم",
      "created": 1644058216250,
      "updated": 1644058216250
    }
  ],
  "provinces": [
    {
      "id": 1,
      "name": "تهران",
      "created": 1644058216250,
      "updated": 1644058216250
    }
  ],
  "cities": [
    {
      "id": 1,
      "provinceId": 1,
      "name": "تهران",
      "created": 1644057729824,
      "updated": 1644057729824
    }
  ],
  "_____________________sep__base_entites__": [
    "----------------------------"
  ],
  "providers": [
    {
      "id": 1,
      "ownershipKindId": 1,
      "executiveOrganisationId": 1,
      "accountId": 4,
      "name": "ثبت احوال",
      "commercialBrand": "برند",
      "status": "ACTIVE",
      "documentIssueDate": 1644079738073,
      "nationalCode": "123457",
      "economicCode": "124",
      "phone": "021112",
      "postCode": "666666667",
      "address": "آدرس دیگه",
      "manager": {
        "firstname": "فلانی",
        "lastname": "فلانزاده",
        "nationalCode": "3790065111",
        "phone": "0211111",
        "birthdate": "1368/01/01",
        "email": "foo@bar.baz",
        "address": "آدرس مدیر",
        "postCode": "654321012"
      },
      "created": 1644118616312,
      "updated": 1644118616312
    }
  ],
  "suppliers": [
    {
      "id": 1,
      "name": "همراستا",
      "commercialBrand": "همراستا",
      "accountId": 1,
      "title": "شرکت همراستا نو آوران سامان",
      "nationalCode": "3565688",
      "economicCode": "12345",
      "registerDate": 1644118616312,
      "registerNumber": "1227",
      "registeredCapital": 2000000,
      "phone": "0213333",
      "postCode": "65812",
      "address": "آدرس",
      "status": "ACTIVE",
      "serviceKindId": 1,
      "ownershipKindId": 1,
      "stateId": 1,
      "cityId": 1,
      "manager": {
        "firstname": "مهرداد",
        "lastname": "فرنوش",
        "nationalCode": "3790065111",
        "phone": "0211111",
        "birthdate": "1368/01/01",
        "email": "foo@bar.baz",
        "address": "آدرس مدیر",
        "postCode": "654321012"
      },
      "created": 1644118616312,
      "updated": 1644118616312
    }
  ],
  "contracts": [
    {
      "id": 1,
      "title": "عنوان قرارداد",
      "number": "12345",
      "registerDate": 1644079738073,
      "startDate": 1644079100000,
      "endDate": 1644079738073,
      "description": "توضیحات",
      "status": "ACTIVE",
      "providerId": 1,
      "supplierId": 1,
      "attachments": [
        "file-id-one.pdf",
        "file-id-two.txt"
      ],
      "created": 1644118616312,
      "updated": 1644118886342
    }
  ],
  "offices": [
    {
      "id": 1,
      "user": {
        "id": "69fb840e-4850-43e0-a521-d6b57038f9db",
        "username": "sayadaazami"
      },
      "officeKindId": 1,
      "ownershipKindId": 1,
      "accountId": 5,
      "rentKind": "OWNER",
      "name": "شرکت اول",
      "licenceNumber": "123456",
      "level": "LEVEL_1",
      "licenceIssueDate": 1644079738073,
      "expireDate": 1644079738073,
      "registerDate": 1644079738073,
      "provinceId": 1,
      "cityId": 1,
      "cityLocation": {
        "lat": 31.2,
        "lng": 52
      },
      "village": "روستا",
      "villageLocation": {
        "lat": 31.2,
        "lng": 52
      },
      "postCode": "666666",
      "phone": "0211111",
      "fax": "0211111",
      "address": "آدرس دفتر",
      "taxTrackNumber": "12596566",
      "status": "ACTIVE",
      "company": {
        "name": "نام شرکت صاحب امتیاز",
        "brand": "برند تجاری شرکت",
        "registerNumber": "1212121",
        "registerDate": 1644079738073,
        "economicCode": 1644079738073,
        "nationalCode": "4343434",
        "newspaperDate": 1644079738073,
        "newspaperNumber": "dsadasd",
        "fax": "0211111",
        "phone": "021111",
        "email": "info@company.com",
        "postCode": "654654",
        "address": "آدرس شرکت",
        "ownershipKindId": 1
      },
      "manager": {
        "firstname": "فلانی",
        "lastname": "فلانزاده",
        "nationalCode": "3790065111",
        "phone": "0211111",
        "birthdate": "1368/01/01",
        "email": "foo@bar.baz",
        "address": "آدرس مدیر",
        "postCode": "654321012"
      },
      "created": 1644118616312,
      "updated": 1644118886342
    }
  ],
  "services": [
    {
      "serviceKindId": 1,
      "providerId": 1,
      "supplierId": 1,
      "name": "ثبت احوال",
      "url": "https://dev.gsp.hamrasta.com/api-gsp/service1",
      "site": "https://dev.gsp.hamrasta.com",
      "documents": "https://dev.gsp.hamrasta.com",
      "price": 1200,
      "process": "فرایند ارائه خدمت ",
      "info": "اطلاعات خدمت",
      "share": [
        {
          "id": "provider",
          "value": 500
        },
        {
          "id": "supplier",
          "value": 500
        },
        {
          "id": "office",
          "value": 100
        },
        {
          "id": 2,
          "value": 100
        }
      ],
      "fields": {
        "nationalCode": {
          "title": "کد ملی",
          "regex": "\\d{10}",
          "required": true
        }
      },
      "created": 1645524979305,
      "updated": 1645524979305,
      "id": 1
    }
  ],
  "accounts": [
    {
      "id": 1,
      "name": "حساب همراستا",
      "bankName": "بانک سامان",
      "kind": "supplier",
      "number": "12345678998765",
      "created": 1644118616312,
      "updated": 1644118616312
    },
    {
      "id": 2,
      "name": "سازمان تنظیم",
      "bankName": "بانک ملت",
      "kind": "other",
      "number": "12345678111111",
      "created": 1644118616312,
      "updated": 1644118616312
    },
    {
      "id": 3,
      "name": "مالیات",
      "bankName": "بانک سامان",
      "kind": "tax",
      "number": "12345678990000",
      "created": 1644118616312,
      "updated": 1644118616312
    },
    {
      "id": 4,
      "name": "حساب تامین کننده 1",
      "bankName": "بانک سامان",
      "kind": "provider",
      "number": "12345678990000",
      "created": 1644118616312,
      "updated": 1644118616312
    },
    {
      "id": 5,
      "name": "حساب دفتر خدماتی 1",
      "bankName": "بانک تجارت",
      "kind": "office",
      "number": "12345678990000",
      "created": 1644118616312,
      "updated": 1644118616312
    }
  ],
  "_____________________sep__pivots__": [
    "----------------------------"
  ],
  "officeServices": [
    {
      "id": 1,
      "officeId": 1,
      "serviceId": 1,
      "created": 1644118616312,
      "updated": 1644118616312
    }
  ],
  "transactions": [],
  "serviceLogs": [],
  "_____________________sep__reports__": [
    "----------------------------"
  ],
  "fullyRegisteredOffices": [
    {
      "province": "تهران",
      "city": "تهران",
      "fromDate": 1644078738073,
      "toDate": 1644079738073,
      "registrationDate": 1644079738073,
      "count": 10
    }
  ],
  "installedPoses": [
    {
      "installationDate": 1644079738073,
      "province": "تهران",
      "city": "تهران",
      "count": 3,
      "fromDate": 1644079738073,
      "toDate": 1644079738073
    }
  ],
  "iranKishPerformanceReport": [
    {
      "province": "تهران",
      "city": "تهران",
      "fromDate": 1644079738073,
      "toDate": 1644079738073,
      "status": "ACTIVE",
      "terminalInstallDate": 1644079738073,
      "requestStatus": "موفق",
      "sendToIranKishDate": 1644079738073,
      "requestId": "1233",
      "managerNationalCode": "3790000000",
      "officeCode": "5268982"
    }
  ],
  "lunchedOffices": [
    {
      "province": "تهران",
      "city": "تهران",
      "fromDate": 1644079738073,
      "toDate": 1644079738073,
      "officeAddress": "ونک، خیابان ونک، پاساژ ونک",
      "officeCode": "5268982",
      "managerName": "آقای ضیاء",
      "managerMobile": "09388888888",
      "managerNationalCode": "3790000000",
      "activationDate": 1644079738073,
      "testTransactionDate": 1644079738073
    }
  ],
  "officesWithServices": [
    {
      "province": "تهران",
      "city": "تهران",
      "address": "ونک، خیابان ونک، پاساژ ونک",
      "servicesCount": 2,
      "activeServicesCount": 2,
      "manager": "آقای ضیاء",
      "mobile": "09388888888",
      "phone": "0215555"
    }
  ],
  "smsList": [
    {
      "province": "تهران",
      "city": "تهران",
      "fromDate": 1644079738073,
      "toDate": 1644079738073,
      "sendDate": 1644079738073,
      "count": 2
    }
  ],
  "collectiveServices": [
    {
      "region": "مرکزی",
      "province": "تهران",
      "city": "تهران",
      "service": "خدمت",
      "fromDate": 1644079738073,
      "toDate": 1644079738073,
      "count": 2
    }
  ],
  "servicesReport": [
    {
      "region": "مرکزی",
      "province": "تهران",
      "city": "تهران",
      "service": "خدمت",
      "fromDate": 1644079738073,
      "toDate": 1644079738073,
      "count": 2
    }
  ],
  "iranKishSendable": [
    {
      "province": "تهران",
      "city": "تهران",
      "sheba": "123456789987654321",
      "guildCode": "4554",
      "terminalKind": "نوع اول",
      "installerCompanyName": "شرکت بهستان",
      "requestNumber": "159",
      "bankRegistrationDate": 1644058216250,
      "storeName": "storeName",
      "phone": "phone",
      "zipCode": "zipCode",
      "provinceCode": "provinceCode",
      "cityCode": "cityCode",
      "applicantFirstName": "applicantFirstName",
      "applicantLastName": "applicantLastName",
      "birthDate": 1644058216250,
      "nationalId": "37965",
      "mobile": "09388888888",
      "accountNumber": "1564654",
      "installationAddress": "تهران ونک",
      "installerCompany": "شرکت داتیس",
      "onlineStatus": "ON",
      "branchCode": "125",
      "branchName": "ونک",
      "bankName": "سامان",
      "newRegionName": "مرکزی",
      "newRegionCode": "564",
      "deviceRequestedCount": 34,
      "storePhone": "021369885",
      "guild": "165654",
      "installationFullAddress": "تهران، ونک",
      "shaparakProvinceCode": "45545454",
      "shaparakCityCode": "898989986",
      "shaparakCityName": "تهران",
      "shaparakProvinceName": "تهران",
      "requestStatus": "موفق",
      "deviceKind": "پوز",
      "bankDeliveryDate": 1644058216250,
      "personalityKindCode": "89789",
      "accountKind": "جاری",
      "personalityTitle": "خنثی",
      "acceptorNationalId": "51515166",
      "acceptorEstablishDate": 1644058216250,
      "description": "توضیح..."
    }
  ],
  "iranKishSended": [
    {
      "province": "تهران",
      "city": "تهران",
      "sheba": "123456789987654321",
      "guildCode": "4554",
      "terminalKind": "نوع اول",
      "installerCompanyName": "شرکت بهستان",
      "requestNumber": "159",
      "bankRegistrationDate": 1644058216250,
      "storeName": "storeName",
      "phone": "phone",
      "zipCode": "zipCode",
      "provinceCode": "provinceCode",
      "cityCode": "cityCode",
      "applicantFirstName": "applicantFirstName",
      "applicantLastName": "applicantLastName",
      "birthDate": 1644058216250,
      "nationalId": "37965",
      "mobile": "09388888888",
      "accountNumber": "1564654",
      "installationAddress": "تهران ونک",
      "installerCompany": "شرکت داتیس",
      "onlineStatus": "ON",
      "branchCode": "125",
      "branchName": "ونک",
      "bankName": "سامان",
      "newRegionName": "مرکزی",
      "newRegionCode": "564",
      "deviceRequestedCount": 34,
      "storePhone": "021369885",
      "guild": "165654",
      "installationFullAddress": "تهران، ونک",
      "shaparakProvinceCode": "45545454",
      "shaparakCityCode": "898989986",
      "shaparakCityName": "تهران",
      "shaparakProvinceName": "تهران",
      "requestStatus": "موفق",
      "deviceKind": "پوز",
      "bankDeliveryDate": 1644058216250,
      "personalityKindCode": "89789",
      "accountKind": "جاری",
      "personalityTitle": "خنثی",
      "acceptorNationalId": "51515166",
      "acceptorEstablishDate": 1644058216250,
      "description": "توضیح...",
      "status": "موفق"
    }
  ],
  "otherBanks": [
    {
      "bankName": "سامان",
      "taxCode": "54545",
      "projectDescription": "پروژه اول",
      "group": "گروه 1",
      "refahOpenField1": "تست",
      "refahOpenField2": "تست2",
      "foreignersCode": "582369",
      "passportExpireDate": 1644058216250,
      "passportNumber": "87877878",
      "countryCode": "45",
      "economicCode": "986523",
      "rentContractExpireDate": 1644058216250,
      "rentContractCode": "852",
      "ownershipKind": "OWNER",
      "businessLicenseValidityDate": 1644058216250,
      "businessLicenseIssuanceDate": 1644058216250,
      "businessLicenseNumber": "322",
      "enLegalAcceptorName": "سامان",
      "legalAcceptorName": "سامان",
      "companyRegistrationNumber": "75894",
      "establishDate": 1644058216250,
      "customerKind": "نوع اول",
      "birthDate": 1644058216250,
      "acceptorKind": "نوع اول",
      "terminalKind": "نوع دوم",
      "shahrBankId": "8989",
      "fax": "021555",
      "urbanRegion": "مرکزی",
      "provinceStandardCode": "83",
      "cityStandardCode": "22",
      "requestedTerminalsCount": 441,
      "mobile": "09388888888",
      "phone": "021555",
      "zipCode": "5252",
      "shaparakInstallationAddress": "خیابان ونک",
      "supplementaryGuildCode": "33",
      "guildCode": "334",
      "enStoreName": "shahr",
      "storeName": "فروشگاه شهر",
      "sheba": "89989898989898989898",
      "branchCode": "81",
      "accountNumber": "944994",
      "legalAcceptorNationalCode": "6363",
      "privateNationalCode": "39022220202",
      "lifeStatus": "فعال",
      "gender": "مرد",
      "enFatherName": "ابراهیم",
      "fatherName": "ابراهیم",
      "enLastName": "یادگار",
      "enFirstName": "جلال",
      "lastName": "یادگار",
      "firstName": "جلال"
    }
  ],
  "saderat": [
    {
      "taxCode": "8998",
      "projectDescription": "توضیحات پروژ]",
      "group": "گروه 1",
      "establishDate": 1644058216250,
      "bankDeliveryDate": 1644058216250,
      "previousEditedRequest": "32",
      "previousEditedRequestCode": "3232",
      "installationLocationFax": "021323",
      "installationLocationPhone": "021323",
      "installationLocationPhonePrefix": "021",
      "installationLocationZipCode": "55555",
      "installationLocationAddressCode": "8998",
      "installationLocationAddress": "ونک",
      "installationLocationProvince": "تهران",
      "installationLocationProvinceCode": "1",
      "installationLocationProvinceShaparakCode": "1239658",
      "installationLocationCity": "تهران",
      "installationLocationCityCode": "55552",
      "businessLicenseValidity": "معتبر",
      "businessLicenseNumber": "987",
      "businessLicense": "نوع اول",
      "businessLicenseCode": "9898",
      "rentEndDate": 1644058216250,
      "ownershipKind": "مالک",
      "ownershipCode": "12",
      "guildName": "تست",
      "guildSupplementaryCode": "89",
      "guildCode": "18",
      "storeName": "فروشگاه شهر",
      "applicantMobile": "09388888888",
      "applicantMobilePrefix": "093",
      "residencePhone": "021545",
      "residencePhonePrefix": "021",
      "residenceZipCode": "5555",
      "residenceAddress": "تهران، ونک",
      "residenceCity": "تهران",
      "residenceCityCode": "887",
      "residenceProvince": "تهران",
      "residenceProvinceCode": "98",
      "familyPhone": "0215485",
      "familyFullName": "جلال یادگار",
      "applicantBranchCode": "323",
      "applicantBranchName": "تاج",
      "applicantBranchCity": "تهران",
      "applicantSupervision": "--",
      "applicantSupervisionCode": "89",
      "sheba": "98787946546549878",
      "ceoLastName": "مرادی",
      "ceoFirstName": "محمد",
      "ceoNationalCode": "39066666662",
      "registrationPlace": "تهران",
      "birthDate": 1644058216250,
      "passportValidityDate": 1644058216250,
      "passportCode": "9898985551",
      "foreignersCode": "2332235",
      "nationality": "ایران",
      "nationalityCode": "89",
      "registrationNumber": "3424",
      "gender": "مرد",
      "genderCode": "98",
      "ceoFatherName": "ابراهیم",
      "lastName": "محمدی",
      "firstName": "محمد",
      "nationalCode": "3966666666",
      "accountKind": "نوع اول",
      "accountCode": "21",
      "accountNumber": "569898",
      "requestedTerminalKind": "پوز",
      "requestedTerminalCode": "33",
      "projectCode": "34343",
      "projectTitle": "همراستا",
      "traceCode": "4444",
      "requestDate": 1644058216250
    }
  ],
  "sepah": [
    {
      "project": "پی جی اس بی",
      "taxCode": "323",
      "projectDescription": "توضیحات مربوطه",
      "group": "گروه 1",
      "companyEstablishDate": 1644058216250,
      "birthDate": "1360/02/21",
      "requestedTerminalKind": "ترمینال 1",
      "acceptorKind": "نوع اول",
      "cityTitle": "تهران",
      "provinceTitle": "تهران",
      "nationality4": "ایران",
      "nationality3": "ایران",
      "nationality2": "ایران",
      "nationality1": "ایران",
      "passportValidityDate4": 1644058216250,
      "passportValidityDate3": 1644058216250,
      "passportValidityDate2": 1644058216250,
      "passportValidityDate1": 1644058216250,
      "passportCode4": "11",
      "passportCode3": "11",
      "passportCode2": "11",
      "passportCode1": "11",
      "foreignersCode4": "22",
      "foreignersCode3": "22",
      "foreignersCode2": "22",
      "foreignersCode1": "22",
      "agencyStatus": "فعال",
      "agencyDescription": "آژانس اول",
      "agencyCode": "323",
      "agencyStoreName": "فروشکاه شهر",
      "nationalCode4": "3745455454",
      "nationalCode3": "3745455454",
      "nationalCode2": "3745455454",
      "lastName4": "بهرامی",
      "firstName4": "سنتا",
      "lastName3": "بهرامی",
      "firstName3": "سنتا",
      "lastName2": "بهرامی",
      "firstName2": "سنتا",
      "partnershipAccount": "7447474747",
      "licenseIssuer": "سامان",
      "licenseNumber": "3333",
      "extraInfo2": "--",
      "extraInfo1": "--",
      "terminalRegion": "مرکزی",
      "terminalKind": "پوز",
      "provinceStandardCode": "323",
      "cityStandardCode": "33333",
      "identificationCode": "333344",
      "requestCount": "32323",
      "mobile": "09388888888",
      "phone": "0212121",
      "zipCode": "5555",
      "faAddress": "تهران",
      "guildSupplementaryCode": "323",
      "shaparakGuildCode": "32324",
      "storeName": "شهر",
      "shebaCode": "465456645465456456456",
      "accountBranchCode": "43",
      "accountNumber": "44",
      "acceptorTitle": "جلالی",
      "acceptorNationalId": "332",
      "acceptorNationalCode": "3878454532",
      "acceptorLastName": "هومن",
      "acceptorFirstName": "سیدی"
    }
  ],
  "tejarat": [
    {
      "projectDescription": "احراز هویت",
      "taxCode": "323",
      "group": "گروه اول",
      "legalAcceptorEstablishDate": 1644058216250,
      "legalAcceptorNationalId": "33",
      "personalityTitle": "حقوقی",
      "personAccountKind": "نوع اول",
      "personalityCode": "333",
      "bankDeliveryDate": 1644058216250,
      "deviceKind": "پوز",
      "requestStatus": "333",
      "shaparakProvinceName": "تهران",
      "shaparakCityName": "تهران",
      "shaparakCityCode": "323",
      "shaparakProvinceCode": "444",
      "nonShaparakInstallationAddress": "تهران",
      "businessCode": "22",
      "storePhone": "0215445",
      "requestedDeviceCount": 33,
      "newRegionCode": "1",
      "newRegionName": "مرکزی",
      "branchName": "شعبه مرکزی",
      "branchCode": "23",
      "onlineStatus": "فعال",
      "installerCompany": "سامان",
      "installationAddress": "تهران",
      "accountNumber": "211221",
      "accountKind": "نوع اول",
      "mobile": "09388888888",
      "nationalCode": "37965656565",
      "birthDate": "1360/01/25",
      "applicantLastName": "جعفری",
      "applicantFirstName": "محسن",
      "cityCode": "22",
      "provinceCode": "1",
      "zipCode": "55555",
      "phone": "0215454",
      "installationPlace": "ونک",
      "bankRequestDate": 1644058216250,
      "requestNumber": "33333",
      "installerCompanyName": "سامان",
      "terminalKind": "پوز",
      "guildCode": "33",
      "shebaCode": "233333333"
    }
  ],
  "activeOfficeServices": [
    {
      "province": "تهران",
      "city": "تهران",
      "serviceProvider": "سامان",
      "service": "احراز هویت",
      "officeCode": "1212",
      "mobile": "09388888888",
      "phone": "021545454",
      "managerName": "جعفر",
      "serviceActivationDate": 1644058216250,
      "provider": "سامان",
      "office": "همراستا"
    }
  ],
  "categorizedTrafficByRegion": [
    {
      "fromDate": 1644058216250,
      "toDate": 1644058216250,
      "webserviceShare": 15000,
      "taxShare": 10000,
      "postShare": 5000,
      "treasuryShare": 120,
      "officeShare": 50,
      "supplierShare": 12,
      "providerShare": 8,
      "tariff": 15190,
      "txCount": 10,
      "dateProvided": 1644058216250,
      "service": "پیامک",
      "provider": "آفرینک",
      "office": "مرکزی"
    }
  ],
  "generalTraffic": [
    {
      "fromDate": 1644058216250,
      "toDate": 1644058216250,
      "webserviceShare": 200,
      "taxShare": 50,
      "postShare": 50,
      "treasuryShare": 120,
      "officeShare": 80,
      "supplierShare": 10,
      "providerShare": 40,
      "tariff": 550,
      "txCount": 1,
      "provider": "ثبت احوال",
      "office": "مرکزی",
      "service": "ثبت احوال"
    }
  ],
  "generalTrafficByRegion": [
    {
      "region": "مرکزی",
      "province": "تهران",
      "city": "تهران",
      "service": "ثبت احوال",
      "txFromDate": 1644058216250,
      "txToDate": 1644058216250,
      "webserviceShare": 200,
      "taxShare": 50,
      "postShare": 50,
      "treasuryShare": 120,
      "officeShare": 80,
      "supplierShare": 10,
      "providerShare": 40,
      "tariff": 550,
      "txCount": 1,
      "provider": "ثبت احوال"
    }
  ],
  "duplicateOffices": [
    {
      "province": "تهران",
      "city": "تهران",
      "rank": 21,
      "registrationDate": 1644058216250,
      "licenseValidityDate": 1644058216250,
      "licenseIssuanceDate": 1644058216250,
      "officeKind": "خصوصی",
      "officeCode": "23",
      "manager": {
        "gender": "مرد",
        "mobile": "0938888888",
        "lastName": "قادری",
        "firstName": "رضا",
        "nationalCode": "3790000000",
        "birthDate": "1360/01/25"
      }
    }
  ],
  "incompleteBankAccounts": [
    {
      "city": "تهران",
      "province": "تهران",
      "sheba": "323283726873628736",
      "guildCode": "3232",
      "terminalKind": "پوز",
      "description": "--",
      "legalAcceptorEstablishmentDate": 1644058216250,
      "legalAcceptorNationalId": "21",
      "personalityTitle": "محمد مرادی",
      "accountPersonalityKind": "نوع اول",
      "accountKindCode": "323",
      "bankDeliveryDate": 1644058216250,
      "deviceKind": "موبایل",
      "statusRequest": "موفق",
      "shaparakProvince": "تهران",
      "shaparakCity": "تهران",
      "shaparakCityCode": "23",
      "shaparakProvinceCode": "32",
      "installationFullAddress": "تهران، ونک",
      "guild": "32",
      "storePhone": "0216454",
      "deviceRequestedCount": 30,
      "newRegionCode": "323",
      "newRegionName": "مرکزی",
      "branchName": "مرکزی",
      "branchCode": "22",
      "onlineStatus": "فعال",
      "installerCompany": "سامان",
      "installationAddress": "ونک",
      "accountNumber": "2135",
      "accountKind": "جاری",
      "mobile": "09388888888",
      "nationalCode": "3799999999",
      "privatePersonBirthDate": 1644058216250,
      "applicantLastName": "فعله گری",
      "applicantFirstName": "رضا",
      "cityCode": "32",
      "provinceCode": "1",
      "zipCode": "55555",
      "phone": "02165465",
      "storeName": "شهر",
      "bankRequestDate": 1644058216250,
      "requestNumber": "43434",
      "installerCompanyName": "سامان"
    }
  ],
  "notActivatedPoses": [
    {
      "province": "تهران",
      "city": "تهران",
      "phone": "02154545",
      "mobile": "09388888888",
      "officeManager": "کوروش طاهری",
      "officeCode": "323"
    }
  ],
  "officesInfo": [
    {
      "province": "تهران",
      "city": "تهران",
      "address": "",
      "officePersonality": "مالک",
      "officeKind": "مستقل",
      "officePhone": "0216545646",
      "officeManager": "محسن صفری",
      "gender": "مرد",
      "birthDate": "1360/01/25",
      "managerMobile": "09388888888"
    }
  ],
  "officesWithoutCommitment": [
    {
      "officeCode": "2323",
      "name": "پیشخوان فردا",
      "phone": "021545",
      "mobile": "09388888888",
      "posKind": "مجازی"
    }
  ],
  "officesWithPos": [
    {
      "province": "تهران",
      "city": "تهران",
      "fromSetupDate": 1644056216250,
      "toSetupDate": 1644058216250,
      "officeAddress": "ونک",
      "managerMobile": "09386656565",
      "phone": "02147987",
      "officeCode": "8989",
      "officeName": "پیشخوان فردا",
      "posSetupDate": 1644098216250
    }
  ],
  "partiallyRegisteredOffices": [
    {
      "province": "تهران",
      "city": "تهران",
      "address": "ونک",
      "code": "23132",
      "officePersonality": "حقیقی",
      "officeKind": "خصوصی",
      "gender": "مرد",
      "validityDate": 1644058216250,
      "birthDate": "1360/01/01",
      "managerMobile": "09388888888",
      "officeManager": "مهیار معز"
    }
  ],
  "unpaidServices": [
    {
      "service": "ثبت احوال",
      "office": "پیشخوان فردا",
      "serviceFromDate": 1644055216250,
      "serviceToDate": 1644058216250
    }
  ]
}
